Études qualitatives sur le web - Séance 2
…
ann_token<-annotate$token
# write_csv2(ann_token, "annotation_Airbnb.csv")
# write_rds(ann_token,"annotation_Airbnb.rds")

ann_token%>%filter(upos=="ADJ"|upos=="NOUN"|upos=="VERB")

## # A tibble: 13,557 × 11
##    doc_id   sid tid   token        token_with_ws lemma upos  xpos  feats tid_source
##     <int> <int> <chr> <chr>        <chr>         <chr> <chr> <chr> <chr> <chr>     
##  1      1     1 3     passé        "passé "      pass… VERB  <NA>  Gend… 0         
##  2      1     1 5     semaines     "semaines "   sema… NOUN  <NA>  Gend… 3         
##  3      1     1 8     studio       "studio "     stud… NOUN  <NA>  Gend… 3         
##  4      1     1 9     chaleureux   "chaleureux"  chal… ADJ   <NA>  Gend… 8         
##  5      1     1 13    allures      "allures "    allu… NOUN  <NA>  Gend… 3         
##  6      1     1 15    chalet       "chalet "     chal… NOUN  <NA>  Gend… 13        
##  7      1     1 17    montagne     "montagne"    mont… NOUN  <NA>  Gend… 15        
##  8      1     2 4     hôte         "hôte "       hôte  NOUN  <NA>  Gend… 0         
##  9      1     2 5     accueillante "accueillant… accu… ADJ   <NA>  Gend… 4         
## 10      1     2 7     attentionnée "attentionné… atte… ADJ   <NA>  Gend… 5         
## # … with 13,547 more rows, and 1 more variable: relation <chr>
…
